<?xml version="1.0" encoding="utf-8"?>
<!-- Generator: Adobe Illustrator 24.1.0, SVG Export Plug-In . SVG Version: 6.00 Build 0)  -->
<svg version="1.1" id="Layer_1" xmlns="http://www.w3.org/2000/svg" xmlns:xlink="http://www.w3.org/1999/xlink" x="0px" y="0px"
	 viewBox="0 0 852 852" style="enable-background:new 0 0 852 852;" xml:space="preserve">
<style type="text/css">
	.st0{fill:#FF9366;}
	.st1{fill:#FFFFFF;}
	.st2{opacity:0.1;enable-background:new    ;}
	.st3{fill:#604343;}
</style>
<g>
	<g>
		<circle class="st0" cx="426" cy="426" r="426"/>
		<path class="st1" d="M230.03,645.16l-127.19,58.25c11.73,13.65,24.24,26.6,37.6,38.7l107.64-50.61L230.03,645.16z"/>
		<path class="st1" d="M214.72,470.32L0.11,421.23c0,1.6-0.11,3.2-0.11,4.8c0,15.8,0.91,31.4,2.61,46.76l201.02,45.98L214.72,470.32
			z"/>
		<path class="st1" d="M749.16,703.4l-127.19-58.25l-18.05,46.32l107.66,50.61C724.92,729.99,737.43,717.04,749.16,703.4z"/>
		<path class="st1" d="M648.37,518.77l201.02-45.98c1.7-15.36,2.61-30.96,2.61-46.76c0-1.6-0.09-3.2-0.11-4.8l-214.6,49.09
			L648.37,518.77z"/>
		<g class="st2">
			<path d="M679.65,537.8c0,149.99-113.57,271.6-253.65,271.6S172.37,687.79,172.37,537.8c0-150.12,147.35-121.25,253.63-121.25
				C532.3,416.54,679.65,387.67,679.65,537.8z"/>
		</g>
		<path class="st1" d="M674.53,526.39c0,141.53-111.27,256.27-248.53,256.27c-137.26,0-248.53-114.74-248.53-256.27
			c0-141.64,144.39-114.41,248.53-114.41S674.53,384.76,674.53,526.39z"/>
		<path class="st3" d="M480.53,266.8c28.54,124.56,144.91,155.72,231.94,62.15c4.33-4.73-2.53-9.2-10.04-17.92
			c-70.16,30.02-162.77,0.7-204.27-54.7C487.32,260.09,479.14,260.56,480.53,266.8z"/>
		<path class="st3" d="M139.53,328.96c87.03,93.61,203.37,62.41,231.97-62.15c1.36-6.25-6.8-6.72-17.66-10.48
			c-45.74,61.06-140.61,81.96-204.24,54.74C142.09,319.76,135.2,324.23,139.53,328.96z"/>
		<path class="st3" d="M727.07,212.96c-45.92-38.79-106.83-55.11-166.01-44.49c-8.24,1.6-15.48-28.7-5.5-30.62
			c68.32-12.25,138.56,6.55,191.59,51.33C754.83,195.85,733.39,218.45,727.07,212.96z"/>
		<path class="st3" d="M290.92,166.34c-59.19-10.62-120.06,5.68-166.01,44.49c-6.29,5.52-27.76-17.11-20.05-23.77
			c52.99-44.76,123.26-63.6,191.59-51.33C306.42,137.63,299.15,167.94,290.92,166.34z"/>
	</g>
</g>
</svg>
